[
  {
    "id": 1,
    "name":"Офис Таганская",
    "region":{
      "id":1,
      "name":"Москва"
    },
    "action":{
      "id":1,
      "name":"Купить"
    },
    "object":{
      "id":1,
      "name":"Офис"
    },
    "price":1000000,
    "priceType":1,
    "footage":50
  },
  {
    "id": 2,
    "name":"Склад Маяковская",
    "region":{
      "id":1,
      "name":"Москва"
    },
    "action":{
      "id":1,
      "name":"Купить"
    },
    "object":{
      "id":2,
      "name":"Склад"
    },
    "price":2000000,
    "priceType":1,
    "footage":500
  },
  {
    "id": 3,
    "name":"Офис Маяковская",
    "region":{
      "id":1,
      "name":"Москва"
    },
    "action":{
      "id":2,
      "name":"Снять"
    },
    "object":{
      "id":1,
      "name":"Офис"
    },
    "price":100000,
    "priceType":1,
    "footage":70
  },
  {
    "id": 4,
    "name":"Офис Курская",
    "region":{
      "id":1,
      "name":"Москва"
    },
    "action":{
      "id":2,
      "name":"Снять"
    },
    "object":{
      "id":1,
      "name":"Офис"
    },
    "price":100000,
    "priceType":1,
    "footage":40
  },
  {
    "id": 5,
    "name":"Офис Люберцы",
    "region":{
      "id":2,
      "name":"Московская область"
    },
    "action":{
      "id":1,
      "name":"Купить"
    },
    "object":{
      "id":1,
      "name":"Офис"
    },
    "price":1000000,
    "priceType":1,
    "footage":120
  },
  {
    "id": 6,
    "name":"Склад Люберцы",
    "region":{
      "id":2,
      "name":"Московская область"
    },
    "action":{
      "id":2,
      "name":"Снять"
    },
    "object":{
      "id":2,
      "name":"Склад"
    },
    "price":500000,
    "priceType":1,
    "footage":500
  },
  {
    "id": 7,
    "name":"Офис краснодар",
    "region":{
      "id":3,
      "name":"Краснодарский край"
    },
    "action":{
      "id":1,
      "name":"Купить"
    },
    "object":{
      "id":1,
      "name":"Офис"
    },
    "price":100000,
    "priceType":1,
    "footage":50
  }
]
